Homework 3
…
yeast_data

# A tibble: 1,484 × 10
   seq_name     mcg   gvh   alm   mit   erl   pox   vac   nuc class
   <chr>      <dbl> <dbl> <dbl> <dbl> <dbl> <dbl> <dbl> <dbl> <chr>
 1 ADT1_YEAST  0.58  0.61  0.47  0.13   0.5   0    0.48  0.22 MIT  
 2 ADT2_YEAST  0.43  0.67  0.48  0.27   0.5   0    0.53  0.22 MIT  
 3 ADT3_YEAST  0.64  0.62  0.49  0.15   0.5   0    0.53  0.22 MIT  
 4 AAR2_YEAST  0.58  0.44  0.57  0.13   0.5   0    0.54  0.22 NUC  
 5 AATM_YEAST  0.42  0.44  0.48  0.54   0.5   0    0.48  0.22 MIT  
 6 AATC_YEAST  0.51  0.4   0.56  0.17   0.5   0.5  0.49  0.22 CYT  
 7 ABC1_YEAST  0.5   0.54  0.48  0.65   0.5   0    0.53  0.22 MIT  
 8 BAF1_YEAST  0.48  0.45  0.59  0.2    0.5   0    0.58  0.34 NUC  
 9 ABF2_YEAST  0.55  0.5   0.66  0.36   0.5   0    0.49  0.22 MIT  
10 ABP1_YEAST  0.4   0.39  0.6   0.15   0.5   0    0.58  0.3  CYT  
# ℹ 1,474 more rows
yeast_data <- yeast_data |>
  select(-seq_name, -nuc)|>
  group_by(class) |>
  mutate(across(where(is.numeric), list(mean = mean, median = median), .names = "{.col}_{.fn}"))

Task 3: Combining Excel and Delimited Data

library(readxl)

Warning: package 'readxl' was built under R version 4.2.3

white_wine_data <- read_excel("white-wine.xlsx", sheet = 1)
white_wine_data

# A tibble: 4,898 × 12
   `fixed acidity` `volatile acidity` `citric acid` `residual sugar` chlorides
             <dbl>              <dbl>         <dbl>            <dbl>     <dbl>
 1               7               0.27          0.36             20.7     0.045
 2              63               0.3           0.34              1.6     0.049
 3              81               0.28          0.4               6.9     0.05 
 4              72               0.23          0.32              8.5     0.058
 5              72               0.23          0.32              8.5     0.058
 6              81               0.28          0.4               6.9     0.05 
 7              62               0.32          0.16              7       0.045
 8               7               0.27          0.36             20.7     0.045
 9              63               0.3           0.34              1.6     0.049
10              81               0.22          0.43              1.5     0.044
# ℹ 4,888 more rows
# ℹ 7 more variables: `free sulfur dioxide` <dbl>,
#   `total sulfur dioxide` <dbl>, density <dbl>, pH <dbl>, sulphates <dbl>,
#   alcohol <dbl>, quality <dbl>
…
manager_records <- tbl(con, "Managers") |>
  filter(playerID %in% hall_of_fame_managers) |>
  select(playerID, G, W, L) |>
  collect() |>
  group_by(playerID) |>
  summarize(G_managed = sum(G, na.rm = TRUE),
            Total_W = sum(W, na.rm = TRUE),
            Total_L = sum(L, na.rm = TRUE)) |>
  mutate(Win_Percentage = Total_W / G_managed * 100) |>
  arrange(desc(Win_Percentage))
combined_data <- manager_records |>
  inner_join(hall_of_fame_names, by = "playerID")
combined_data

# A tibble: 97 × 9
   playerID  G_managed Total_W Total_L Win_Percentage nameFirst nameLast  yearID
   <chr>         <int>   <int>   <int>          <dbl> <chr>     <chr>      <int>
 1 simmote01         1       1       0          100   Ted       Simmons     2020
 2 wrighge01        85      59      25           69.4 George    Wright      1937
 3 spaldal01       126      78      47           61.9 Al        Spalding    1939
 4 mccarjo99      3487    2125    1333           60.9 Joe       McCarthy    1957
 5 comisch01      1410     840     541           59.6 Charlie   Comiskey    1939
 6 southbi01      1770    1044     704           59.0 Billy     Southwor…   2008
 7 seleefr99      2180    1284     862           58.9 Frank     Selee       1999
 8 chancfr01      1622     946     648           58.3 Frank     Chance      1946
 9 weaveea99      2541    1480    1060           58.2 Earl      Weaver      1996
10 lopezal01      2425    1410    1004           58.1 Al        Lopez       1977
# ℹ 87 more rows
# ℹ 1 more variable: category <chr>
